…
To show how to use the available functions, we use the `intro` dataset
which is included in the package.

``` r
intro
```

    ## # A tibble: 1,324 x 3
    ##    Farm  dateIntr   nAnim
    ##    <chr> <fct>      <int>
    ##  1 FR001 2010-01-22     1
    ##  2 FR001 2015-05-04    14
    ##  3 FR002 2011-02-11     2
    ##  4 FR002 2010-12-23     5
    ##  5 FR003 2012-11-07     3
    ##  6 FR003 2016-05-25     5
    ##  7 FR005 2016-03-31    13
    ##  8 FR005 2016-04-20    17
    ##  9 FR008 2012-06-04     2
    ## 10 FR008 2010-04-30     1
    ## # ... with 1,314 more rows
…
